{
  "$schema": "https://raw.githubusercontent.com/microsoft/vcpkg-tool/main/docs/vcpkg-configuration.schema.json",
  "default-registry": {
    "kind": "git",
    "repository": "https://github.com/microsoft/vcpkg",
    "baseline": "3f530d4827b064f5894e94a8946473d40999826e"
  },
  "registries": [
    {
      "kind": "git",
      "repository": "https://gitlab.com/kicad/packaging/kicad-vcpkg-registry.git",
      "baseline": "65dbdd3d220d48a31df1e0b87fa305a38cf3fa8a",
      "packages": [
        "glew",
        "python3",
        "opencascade",
        "wxpython",
        "wxwidgets",
        "ngspice"
      ]
    }
  ]
}
